{
  "opasity": {
    "xs": {
      "value": "40%",
      "type": "opacity"
    },
    "s": {
      "value": "60%",
      "type": "opacity"
    }
  },
  "fontFamilies": {
    "inter": {
      "value": "Inter",
      "type": "fontFamilies"
    }
  },
  "lineHeights": {
    "0": {
      "value": "12",
      "type": "lineHeights"
    },
    "1": {
      "value": "16",
      "type": "lineHeights"
    },
    "2": {
      "value": "20",
      "type": "lineHeights"
    },
    "3": {
      "value": "22",
      "type": "lineHeights"
    },
    "4": {
      "value": "24",
      "type": "lineHeights"
    },
    "5": {
      "value": "26",
      "type": "lineHeights"
    },
    "6": {
      "value": "28",
      "type": "lineHeights"
    },
    "7": {
      "value": "30",
      "type": "lineHeights"
    },
    "8": {
      "value": "36",
      "type": "lineHeights"
    },
    "9": {
      "value": "42",
      "type": "lineHeights"
    },
    "10": {
      "value": "54",
      "type": "lineHeights"
    }
  },
  "fontWeights": {
    "inter-800": {
      "value": "Extra Bold",
      "type": "fontWeights"
    },
    "inter-700": {
      "value": "Bold",
      "type": "fontWeights"
    },
    "inter-600": {
      "value": "Semi Bold",
      "type": "fontWeights"
    },
    "inter-500": {
      "value": "Medium",
      "type": "fontWeights"
    },
    "inter-400": {
      "value": "Regular",
      "type": "fontWeights"
    }
  },
  "fontSize": {
    "0": {
      "value": "11",
      "type": "fontSizes"
    },
    "1": {
      "value": "12",
      "type": "fontSizes"
    },
    "2": {
      "value": "14",
      "type": "fontSizes"
    },
    "3": {
      "value": "16",
      "type": "fontSizes"
    },
    "4": {
      "value": "18",
      "type": "fontSizes"
    },
    "5": {
      "value": "20",
      "type": "fontSizes"
    },
    "6": {
      "value": "24",
      "type": "fontSizes"
    },
    "7": {
      "value": "32",
      "type": "fontSizes"
    },
    "8": {
      "value": "36",
      "type": "fontSizes"
    },
    "9": {
      "value": "48",
      "type": "fontSizes"
    }
  },
  "Display": {
    "huge": {
      "value": {
        "fontFamily": "{fontFamilies.inter}",
        "fontWeight": "{fontWeights.inter-800}",
        "lineHeight": "{lineHeights.10}",
        "fontSize": "{fontSize.9}",
        "letterSpacing": "{letterSpacing.0}",
        "paragraphSpacing": "{paragraphSpacing.0}",
        "paragraphIndent": "{paragraphIndent.0}",
        "textCase": "{textCase.none}",
        "textDecoration": "{textDecoration.none}"
      },
      "type": "typography"
    },
    "large": {
      "value": {
        "fontFamily": "{fontFamilies.inter}",
        "fontWeight": "{fontWeights.inter-800}",
        "lineHeight": "{lineHeights.9}",
        "fontSize": "{fontSize.8}",
        "letterSpacing": "{letterSpacing.0}",
        "paragraphSpacing": "{paragraphSpacing.0}",
        "paragraphIndent": "{paragraphIndent.0}",
        "textCase": "{textCase.none}",
        "textDecoration": "{textDecoration.none}"
      },
      "type": "typography"
    },
    "small": {
      "value": {
        "fontFamily": "{fontFamilies.inter}",
        "fontWeight": "{fontWeights.inter-800}",
        "lineHeight": "{lineHeights.8}",
        "fontSize": "{fontSize.7}",
        "letterSpacing": "{letterSpacing.0}",
        "paragraphSpacing": "{paragraphSpacing.0}",
        "paragraphIndent": "{paragraphIndent.0}",
        "textCase": "{textCase.none}",
        "textDecoration": "{textDecoration.none}"
      },
      "type": "typography"
    },
    "tiny": {
      "value": {
        "fontFamily": "{fontFamilies.inter}",
        "fontWeight": "{fontWeights.inter-800}",
        "lineHeight": "{lineHeights.7}",
        "fontSize": "{fontSize.6}",
        "letterSpacing": "{letterSpacing.0}",
        "paragraphSpacing": "{paragraphSpacing.0}",
        "paragraphIndent": "{paragraphIndent.0}",
        "textCase": "{textCase.none}",
        "textDecoration": "{textDecoration.none}"
      },
      "type": "typography"
    }
  },
  "Heading": {
    "h1": {
      "value": {
        "fontFamily": "{fontFamilies.inter}",
        "fontWeight": "{fontWeights.inter-700}",
        "lineHeight": "{lineHeights.7}",
        "fontSize": "{fontSize.6}",
        "letterSpacing": "{letterSpacing.0}",
        "paragraphSpacing": "{paragraphSpacing.0}",
        "paragraphIndent": "{paragraphIndent.0}",
        "textCase": "{textCase.none}",
        "textDecoration": "{textDecoration.none}"
      },
      "type": "typography"
    },
    "h2": {
      "value": {
        "fontFamily": "{fontFamilies.inter}",
        "fontWeight": "{fontWeights.inter-700}",
        "lineHeight": "{lineHeights.6}",
        "fontSize": "{fontSize.5}",
        "letterSpacing": "{letterSpacing.0}",
        "paragraphSpacing": "{paragraphSpacing.0}",
        "paragraphIndent": "{paragraphIndent.0}",
        "textCase": "{textCase.none}",
        "textDecoration": "{textDecoration.none}"
      },
      "type": "typography"
    },
    "h3": {
      "value": {
        "fontFamily": "{fontFamilies.inter}",
        "fontWeight": "{fontWeights.inter-700}",
        "lineHeight": "{lineHeights.5}",
        "fontSize": "{fontSize.4}",
        "letterSpacing": "{letterSpacing.0}",
        "paragraphSpacing": "{paragraphSpacing.0}",
        "paragraphIndent": "{paragraphIndent.0}",
        "textCase": "{textCase.none}",
        "textDecoration": "{textDecoration.none}"
      },
      "type": "typography"
    },
    "h4": {
      "value": {
        "fontFamily": "{fontFamilies.inter}",
        "fontWeight": "{fontWeights.inter-700}",
        "lineHeight": "{lineHeights.4}",
        "fontSize": "{fontSize.3}",
        "letterSpacing": "{letterSpacing.0}",
        "paragraphSpacing": "{paragraphSpacing.0}",
        "paragraphIndent": "{paragraphIndent.0}",
        "textCase": "{textCase.none}",
        "textDecoration": "{textDecoration.none}"
      },
      "type": "typography"
    },
    "h5": {
      "value": {
        "fontFamily": "{fontFamilies.inter}",
        "fontWeight": "{fontWeights.inter-700}",
        "lineHeight": "{lineHeights.2}",
        "fontSize": "{fontSize.2}",
        "letterSpacing": "{letterSpacing.0}",
        "paragraphSpacing": "{paragraphSpacing.0}",
        "paragraphIndent": "{paragraphIndent.0}",
        "textCase": "{textCase.uppercase}",
        "textDecoration": "{textDecoration.none}"
      },
      "type": "typography"
    },
    "h6": {
      "value": {
        "fontFamily": "{fontFamilies.inter}",
        "fontWeight": "{fontWeights.inter-700}",
        "lineHeight": "{lineHeights.1}",
        "fontSize": "{fontSize.1}",
        "letterSpacing": "{letterSpacing.0}",
        "paragraphSpacing": "{paragraphSpacing.0}",
        "paragraphIndent": "{paragraphIndent.0}",
        "textCase": "{textCase.uppercase}",
        "textDecoration": "{textDecoration.none}"
      },
      "type": "typography"
    }
  },
  "Body": {
    "large-strong": {
      "value": {
        "fontFamily": "{fontFamilies.inter}",
        "fontWeight": "{fontWeights.inter-600}",
        "lineHeight": "{lineHeights.4}",
        "fontSize": "{fontSize.4}",
        "letterSpacing": "{letterSpacing.0}",
        "paragraphSpacing": "{paragraphSpacing.0}",
        "paragraphIndent": "{paragraphIndent.0}",
        "textCase": "{textCase.none}",
        "textDecoration": "{textDecoration.none}"
      },
      "type": "typography"
    },
    "large-medium": {
      "value": {
        "fontFamily": "{fontFamilies.inter}",
        "fontWeight": "{fontWeights.inter-500}",
        "lineHeight": "{lineHeights.4}",
        "fontSize": "{fontSize.4}",
        "letterSpacing": "{letterSpacing.0}",
        "paragraphSpacing": "{paragraphSpacing.0}",
        "paragraphIndent": "{paragraphIndent.0}",
        "textCase": "{textCase.none}",
        "textDecoration": "{textDecoration.none}"
      },
      "type": "typography"
    },
    "large": {
      "value": {
        "fontFamily": "{fontFamilies.inter}",
        "fontWeight": "{fontWeights.inter-400}",
        "lineHeight": "{lineHeights.4}",
        "fontSize": "{fontSize.4}",
        "letterSpacing": "{letterSpacing.0}",
        "paragraphSpacing": "{paragraphSpacing.0}",
        "paragraphIndent": "{paragraphIndent.0}",
        "textCase": "{textCase.none}",
        "textDecoration": "{textDecoration.none}"
      },
      "type": "typography"
    },
    "default-strong": {
      "value": {
        "fontFamily": "{fontFamilies.inter}",
        "fontWeight": "{fontWeights.inter-600}",
        "lineHeight": "{lineHeights.4}",
        "fontSize": "{fontSize.3}",
        "letterSpacing": "{letterSpacing.0}",
        "paragraphSpacing": "{paragraphSpacing.0}",
        "paragraphIndent": "{paragraphIndent.0}",
        "textCase": "{textCase.none}",
        "textDecoration": "{textDecoration.none}"
      },
      "type": "typography"
    },
    "default-medium": {
      "value": {
        "fontFamily": "{fontFamilies.inter}",
        "fontWeight": "{fontWeights.inter-500}",
        "lineHeight": "{lineHeights.4}",
        "fontSize": "{fontSize.3}",
        "letterSpacing": "{letterSpacing.0}",
        "paragraphSpacing": "{paragraphSpacing.0}",
        "paragraphIndent": "{paragraphIndent.0}",
        "textCase": "{textCase.none}",
        "textDecoration": "{textDecoration.none}"
      },
      "type": "typography"
    },
    "default": {
      "value": {
        "fontFamily": "{fontFamilies.inter}",
        "fontWeight": "{fontWeights.inter-400}",
        "lineHeight": "{lineHeights.4}",
        "fontSize": "{fontSize.3}",
        "letterSpacing": "{letterSpacing.0}",
        "paragraphSpacing": "{paragraphSpacing.0}",
        "paragraphIndent": "{paragraphIndent.0}",
        "textCase": "{textCase.none}",
        "textDecoration": "{textDecoration.none}"
      },
      "type": "typography"
    },
    "small-strong": {
      "value": {
        "fontFamily": "{fontFamilies.inter}",
        "fontWeight": "{fontWeights.inter-600}",
        "lineHeight": "{lineHeights.4}",
        "fontSize": "{fontSize.2}",
        "letterSpacing": "{letterSpacing.0}",
        "paragraphSpacing": "{paragraphSpacing.0}",
        "paragraphIndent": "{paragraphIndent.0}",
        "textCase": "{textCase.none}",
        "textDecoration": "{textDecoration.none}"
      },
      "type": "typography"
    },
    "small-medium": {
      "value": {
        "fontFamily": "{fontFamilies.inter}",
        "fontWeight": "{fontWeights.inter-500}",
        "lineHeight": "{lineHeights.4}",
        "fontSize": "{fontSize.2}",
        "letterSpacing": "{letterSpacing.0}",
        "paragraphSpacing": "{paragraphSpacing.0}",
        "paragraphIndent": "{paragraphIndent.0}",
        "textCase": "{textCase.none}",
        "textDecoration": "{textDecoration.none}"
      },
      "type": "typography"
    },
    "small": {
      "value": {
        "fontFamily": "{fontFamilies.inter}",
        "fontWeight": "{fontWeights.inter-400}",
        "lineHeight": "{lineHeights.4}",
        "fontSize": "{fontSize.2}",
        "letterSpacing": "{letterSpacing.0}",
        "paragraphSpacing": "{paragraphSpacing.0}",
        "paragraphIndent": "{paragraphIndent.0}",
        "textCase": "{textCase.none}",
        "textDecoration": "{textDecoration.none}"
      },
      "type": "typography"
    },
    "tiny-strong": {
      "value": {
        "fontFamily": "{fontFamilies.inter}",
        "fontWeight": "{fontWeights.inter-600}",
        "lineHeight": "{lineHeights.1}",
        "fontSize": "{fontSize.1}",
        "letterSpacing": "{letterSpacing.0}",
        "paragraphSpacing": "{paragraphSpacing.0}",
        "paragraphIndent": "{paragraphIndent.0}",
        "textCase": "{textCase.none}",
        "textDecoration": "{textDecoration.none}"
      },
      "type": "typography"
    },
    "tiny-medium": {
      "value": {
        "fontFamily": "{fontFamilies.inter}",
        "fontWeight": "{fontWeights.inter-500}",
        "lineHeight": "{lineHeights.1}",
        "fontSize": "{fontSize.1}",
        "letterSpacing": "{letterSpacing.0}",
        "paragraphSpacing": "{paragraphSpacing.0}",
        "paragraphIndent": "{paragraphIndent.0}",
        "textCase": "{textCase.none}",
        "textDecoration": "{textDecoration.none}"
      },
      "type": "typography"
    },
    "tiny": {
      "value": {
        "fontFamily": "{fontFamilies.inter}",
        "fontWeight": "{fontWeights.inter-400}",
        "lineHeight": "{lineHeights.1}",
        "fontSize": "{fontSize.1}",
        "letterSpacing": "{letterSpacing.0}",
        "paragraphSpacing": "{paragraphSpacing.0}",
        "paragraphIndent": "{paragraphIndent.0}",
        "textCase": "{textCase.none}",
        "textDecoration": "{textDecoration.none}"
      },
      "type": "typography"
    }
  },
  "Paragraph": {
    "large": {
      "value": {
        "fontFamily": "{fontFamilies.inter}",
        "fontWeight": "{fontWeights.inter-400}",
        "lineHeight": "{lineHeights.5}",
        "fontSize": "{fontSize.4}",
        "letterSpacing": "{letterSpacing.1}",
        "paragraphSpacing": "{paragraphSpacing.0}",
        "paragraphIndent": "{paragraphIndent.0}",
        "textCase": "{textCase.none}",
        "textDecoration": "{textDecoration.none}"
      },
      "type": "typography"
    },
    "default": {
      "value": {
        "fontFamily": "{fontFamilies.inter}",
        "fontWeight": "{fontWeights.inter-400}",
        "lineHeight": "{lineHeights.4}",
        "fontSize": "{fontSize.3}",
        "letterSpacing": "{letterSpacing.1}",
        "paragraphSpacing": "{paragraphSpacing.0}",
        "paragraphIndent": "{paragraphIndent.0}",
        "textCase": "{textCase.none}",
        "textDecoration": "{textDecoration.none}"
      },
      "type": "typography"
    },
    "small": {
      "value": {
        "fontFamily": "{fontFamilies.inter}",
        "fontWeight": "{fontWeights.inter-400}",
        "lineHeight": "{lineHeights.3}",
        "fontSize": "{fontSize.2}",
        "letterSpacing": "{letterSpacing.1}",
        "paragraphSpacing": "{paragraphSpacing.0}",
        "paragraphIndent": "{paragraphIndent.0}",
        "textCase": "{textCase.none}",
        "textDecoration": "{textDecoration.none}"
      },
      "type": "typography"
    },
    "tiny": {
      "value": {
        "fontFamily": "{fontFamilies.inter}",
        "fontWeight": "{fontWeights.inter-400}",
        "lineHeight": "{lineHeights.1}",
        "fontSize": "{fontSize.1}",
        "letterSpacing": "{letterSpacing.1}",
        "paragraphSpacing": "{paragraphSpacing.0}",
        "paragraphIndent": "{paragraphIndent.0}",
        "textCase": "{textCase.none}",
        "textDecoration": "{textDecoration.none}"
      },
      "type": "typography"
    }
  },
  "Caption": {
    "small": {
      "value": {
        "fontFamily": "{fontFamilies.inter}",
        "fontWeight": "{fontWeights.inter-500}",
        "lineHeight": "{lineHeights.1}",
        "fontSize": "{fontSize.0}",
        "letterSpacing": "{letterSpacing.1}",
        "paragraphSpacing": "{paragraphSpacing.0}",
        "paragraphIndent": "{paragraphIndent.0}",
        "textCase": "{textCase.none}",
        "textDecoration": "{textDecoration.none}"
      },
      "type": "typography"
    },
    "tiny": {
      "value": {
        "fontFamily": "{fontFamilies.inter}",
        "fontWeight": "{fontWeights.inter-400}",
        "lineHeight": "{lineHeights.1}",
        "fontSize": "{fontSize.0}",
        "letterSpacing": "{letterSpacing.1}",
        "paragraphSpacing": "{paragraphSpacing.0}",
        "paragraphIndent": "{paragraphIndent.0}",
        "textCase": "{textCase.none}",
        "textDecoration": "{textDecoration.none}"
      },
      "type": "typography"
    }
  },
  "textCase": {
    "none": {
      "value": "none",
      "type": "textCase"
    },
    "uppercase": {
      "value": "uppercase",
      "type": "textCase"
    }
  },
  "Spacing-base": {
    "value": "8",
    "type": "spacing"
  },
  "Spacing-0,25": {
    "value": "{Spacing-base}/4",
    "type": "spacing"
  },
  "Spacing-0,5": {
    "value": "{Spacing-base}/2",
    "type": "spacing"
  },
  "Spacing-0,75": {
    "value": "{Spacing-base}*0.75",
    "type": "spacing"
  },
  "Spacing-1": {
    "value": "{Spacing-base}*1",
    "type": "spacing"
  },
  "Spacing-1,5": {
    "value": "{Spacing-base}*1.5",
    "type": "spacing"
  },
  "Light": {
    "elevation-01": {
      "value": {
        "x": "0",
        "y": "4",
        "blur": "20",
        "spread": "0",
        "color": "#0000000a",
        "type": "dropShadow"
      },
      "type": "boxShadow",
      "description": "use for shadow of components, such as cards, menus. Combine with surface.secondary"
    },
    "elevation-02": {
      "value": {
        "color": "#0000001a",
        "type": "dropShadow",
        "x": "0",
        "y": "12",
        "blur": "24",
        "spread": "0"
      },
      "type": "boxShadow",
      "description": "Use for shadow of elements that sit on top of they UI, such as modals, dialogs, dropdown menus. Combine with surface.tertiary"
    },
    "surface": {
      "primary": {
        "value": "{Base.Neutral.neutral-02}",
        "type": "color",
        "description": "Use as a background color for the site which appears behind scrollable content."
      },
      "primary-eclipse": {
        "value": "linear-gradient(180deg, $Light.surface.primary00 0%, $Light.surface.primary 100%)",
        "type": "color",
        "description": "Use to darken scrollable content on surface elevation."
      },
      "secondary": {
        "value": "{Base.Neutral.neutral-00}",
        "type": "color",
        "description": "use for surfaces of components, such as cards, menus. Combine with elevation-01"
      },
      "secondary-hover": {
        "value": "{Base.Neutral.neutral-02}",
        "type": "color",
        "description": "Use for secondary surface elements in a hovered state."
      },
      "secondary-eclipse": {
        "value": "linear-gradient(180deg, $Light.surface.secondary00 0%, $Light.surface.secondary 100%)",
        "type": "color",
        "description": "Use to darken scrollable content on secondary surface."
      },
      "tertiary": {
        "value": "{Base.Neutral.neutral-00}",
        "type": "color",
        "description": "Use for surfaces of elements that sit on top of they UI, such as modals, dialogs, dropdown menus. Combine with elevation-02"
      },
      "tertiary-hover": {
        "value": "{Base.Neutral.neutral-02}",
        "type": "color",
        "description": "Use for tertiary surface elements in a hovered state."
      },
      "tertiary-eclipse": {
        "value": "linear-gradient(180deg, $Light.surface.tertiary00 0%, $Light.surface.tertiary 100%)",
        "type": "color",
        "description": "Use to darken scrollable content on tertiary surface."
      },
      "transparent": {
        "value": "{Base.Neutral.neutral-16}66",
        "type": "color",
        "description": "Use transparent for modals pages\n"
      }
    },
    "background": {
      "primary": {
        "value": "{Base.Neutral.neutral-00}",
        "type": "color",
        "description": "Use to visually group or separate UI elements, such as text fields, checkboxes, and radio buttons."
      },
      "secondary": {
        "value": "{Base.Neutral.neutral-02}",
        "type": "color",
        "description": "The default background for neutral elements, disabled states"
      },
      "tertiary": {
        "value": "{Base.Neutral.neutral-03}",
        "type": "color",
        "description": "Use for gray backgrounds when there is no meaning tied to the color. Reserved for when you only want a hint of color."
      },
      "accent": {
        "value": "{Base.Orange.orange-06}",
        "type": "color",
        "description": "Use for the background of elements to reinforce our brand with more emphasis, such as button or Elements in a selected state - checkboxes, radiobuttons ets."
      },
      "accent-hover": {
        "value": "{Base.Orange.orange-07}",
        "type": "color",
        "description": "Use for accent background of elements in a hovered state."
      },
      "accent-press": {
        "value": "{Base.Orange.orange-08}",
        "type": "color",
        "description": "Use for background of elements in a pressed state."
      },
      "brand": {
        "value": "{Base.Blue.blue-06}",
        "type": "color",
        "description": "Use for background that reinforces our brand."
      },
      "brand-hover": {
        "value": "{Base.Blue.blue-07}",
        "type": "color",
        "description": "Use for brand background of elements in a pressed state."
      },
      "success": {
        "value": "{Base.Green.green-01}",
        "type": "color",
        "description": "Use for backgrounds communicating a favourable outcome, such as in success section messages."
      },
      "error": {
        "value": "{Base.Red.red-01}",
        "type": "color",
        "description": "Use for backgrounds communicating critical information, such in error section messages."
      },
      "warning": {
        "value": "{Base.Yellow.yellow-01}",
        "type": "color",
        "description": "Use for backgrounds communicating caution, such as in warning section messages."
      },
      "orange": {
        "value": "{Base.Orange.orange-01}",
        "type": "color",
        "description": "Use for orange backgrounds when there is no meaning tied to the color."
      },
      "white": {
        "value": "{Base.Neutral.neutral-00}",
        "type": "color",
        "description": "A vibrant background option for colored UI elements, such as announcement banners, white buttons."
      },
      "disabled": {
        "value": "{Base.Neutral.neutral-00}66",
        "type": "color",
        "description": "Use for backgrounds of elements in a disabled state."
      }
    },
    "border": {
      "minimal": {
        "value": "{Base.Neutral.neutral-03}",
        "type": "color",
        "description": "Use to visually group or separate UI elements, such as table divider ets."
      },
      "subtle": {
        "value": "{Base.Neutral.neutral-05}",
        "type": "color",
        "description": "Use to visually group or separate UI elements, such as cards, outlined buttons, text fields, checkboxes, and radio buttons."
      },
      "bold": {
        "value": "{Base.Neutral.neutral-06}",
        "type": "color",
        "description": "Use for borders of elements in a hovered state."
      },
      "contrast": {
        "value": "{Base.Neutral.neutral-07}",
        "type": "color",
        "description": "Use for borders of elements in a pressed state."
      },
      "accent": {
        "value": "{Base.Orange.orange-06}",
        "type": "color",
        "description": "Use for borders or visual indicators of elements that reinforce our brand."
      },
      "brand": {
        "value": "{Base.Blue.blue-06}",
        "type": "color",
        "description": "Use for borders or visual indicators of elements in a selected or opened state, such as in tabs or menu items."
      },
      "success": {
        "value": "{Base.Green.green-06}",
        "type": "color",
        "description": "Use for borders communicating a favourable outcome, such as the borders on validated text fields."
      },
      "error": {
        "value": "{Base.Red.red-06}",
        "type": "color",
        "description": "Use for borders communicating critical information, such as the borders on invalid text fields."
      },
      "warning": {
        "value": "{Base.Yellow.yellow-05}",
        "type": "color",
        "description": "Use for borders communicating critical information, such as the borders on invalid text fields."
      }
    },
    "text": {
      "primary": {
        "value": "{Base.Neutral.neutral-16}",
        "type": "color",
        "description": "Use for primary text, such as headers, navigation, input field placeholder, button outlined, active tabs."
      },
      "secondary": {
        "value": "{Base.Neutral.neutral-10}",
        "type": "color",
        "description": "Use for secondary text, such as body."
      },
      "tertiary": {
        "value": "{Base.Neutral.neutral-08}",
        "type": "color",
        "description": "Use for tertiary text, such as input field labels, inactive tabs."
      },
      "disabled": {
        "value": "{Base.Neutral.neutral-06}",
        "type": "color",
        "description": "Use for text in a disabled state."
      },
      "onСolor": {
        "value": "{Base.Neutral.neutral-00}",
        "type": "color",
        "description": "Use for text on colored backgrounds."
      },
      "onСolor-disabled": {
        "value": "{Base.Neutral.neutral-00}99",
        "type": "color",
        "description": "Use for text in a disabled state on colored backgrounds."
      },
      "onColor-inactive": {
        "value": "{Base.Neutral.neutral-00}cc",
        "type": "color",
        "description": "Use for menu in an inactive state on colored backgrounds."
      },
      "onWhite": {
        "value": "{Base.Neutral.neutral-16}",
        "type": "color",
        "description": "Use for text on white backgrounds, such as white buttons."
      },
      "accent": {
        "value": "{Base.Orange.orange-06}",
        "type": "color",
        "description": "Use for text in selected or opened states, such as dropdown buttons, links."
      },
      "brand": {
        "value": "{Base.Blue.blue-06}",
        "type": "color",
        "description": "Use for text that reinforces our brand."
      },
      "success": {
        "value": "{Base.Green.green-06}",
        "type": "color",
        "description": "Use for text to communicate a favourable outcome, such as input field success messaging."
      },
      "error": {
        "value": "{Base.Red.red-06}",
        "type": "color",
        "description": "Use for critical text, such as input field error messaging."
      },
      "warning": {
        "value": "{Base.Yellow.yellow-06}",
        "type": "color",
        "description": "Use for text to emphasize caution."
      }
    },
    "icon": {
      "primary": {
        "value": "{Base.Neutral.neutral-16}",
        "type": "color",
        "description": "Use for icons paired with \ntext.primary"
      },
      "secondary": {
        "value": "{Base.Neutral.neutral-07}",
        "type": "color",
        "description": "Use for icons paired with text.secondary"
      },
      "disabled": {
        "value": "{Base.Neutral.neutral-06}",
        "type": "color",
        "description": "Use for icon in a disabled state."
      },
      "on-color": {
        "value": "{Base.Neutral.neutral-00}",
        "type": "color",
        "description": "Use for icon on colored backgrounds."
      },
      "onColor-disabled": {
        "value": "{Base.Neutral.neutral-00}99",
        "type": "color",
        "description": "Use for icon in a disabled state on colored backgrounds."
      },
      "onWhite": {
        "value": "{Base.Neutral.neutral-16}",
        "type": "color",
        "description": "Use for icon on white backgrounds, such as white buttons."
      },
      "accent": {
        "value": "{Base.Orange.orange-06}",
        "type": "color",
        "description": "Use for icon in selected or opened states."
      },
      "brand": {
        "value": "{Base.Blue.blue-06}",
        "type": "color",
        "description": "Use for icon that reinforces our brand."
      },
      "green": {
        "value": "{Base.Green.green-06}",
        "type": "color",
        "description": "Use for green icons when there is no meaning tied to the color."
      },
      "red": {
        "value": "{Base.Red.red-06}",
        "type": "color",
        "description": "Use for red icons, when there is no meaning tied to the color."
      },
      "orange": {
        "value": "{Base.Yellow.yellow-06}",
        "type": "color",
        "description": "Use for red icons when there is no meaning tied to the color."
      }
    }
  },
  "Dark": {
    "elevation-01": {
      "value": {
        "x": "0",
        "y": "4",
        "blur": "20",
        "spread": "0",
        "color": "#000000",
        "type": "dropShadow"
      },
      "type": "boxShadow",
      "description": "use for shadow of components, such as cards, menus. Combine with surface.secondary"
    },
    "elevation-02": {
      "value": {
        "x": "0",
        "y": "12",
        "blur": "24",
        "spread": "0",
        "color": "rgba(0,0,0,0.6)",
        "type": "dropShadow"
      },
      "type": "boxShadow",
      "description": "Use for shadow of elements that sit on top of they UI, such as modals, dialogs, dropdown menus. Combine with surface.tertiary"
    },
    "surface": {
      "primary": {
        "value": "{Base.Neutral.neutral-15}",
        "type": "color",
        "description": "Use as a background for the site."
      },
      "primary-eclipse": {
        "value": "linear-gradient(180deg, $Dark.surface.primary00 0%, $Dark.surface.primary 100%)",
        "type": "color",
        "description": "Use to darken scrollable content on surface elevation."
      },
      "secondary": {
        "value": "{Base.Neutral.neutral-13}",
        "type": "color",
        "description": "Use for the background of cards. Combine with shadow.raised"
      },
      "secondary-hover": {
        "value": "{Base.Neutral.neutral-12}",
        "type": "color",
        "description": "Use for raised elements in a hovered state."
      },
      "secondary-eclipse": {
        "value": "linear-gradient(180deg, $Dark.surface.secondary00 0%, $Dark.surface.secondary 100%)",
        "type": "color",
        "description": "Use to darken scrollable content on raised elevation."
      },
      "tertiary": {
        "value": "{Base.Neutral.neutral-12}",
        "type": "color",
        "description": "Use for the background of elements that sit on top of they UI, such as modals, dialogs, dropdown menus. Combine with elevation.shadow.overlay."
      },
      "tertiary-hover": {
        "value": "{Base.Neutral.neutral-11}",
        "type": "color",
        "description": "Use for surface of elements in a hovered state."
      },
      "tertiary-eclipse": {
        "value": "linear-gradient(180deg, $Dark.surface.tertiary00 0%, $Dark.surface.tertiary 100%)",
        "type": "color",
        "description": "Use to darken scrollable content on tertiary surface."
      },
      "transparent": {
        "value": "{Base.Neutral.neutral-16}66",
        "type": "color",
        "description": "Use transparent for modals pages"
      }
    },
    "background": {
      "primary": {
        "value": "{Base.Neutral.neutral-13}",
        "type": "color",
        "description": "Use to visually group or separate UI elements, such as text fields, checkboxes, and radio buttons."
      },
      "secondary": {
        "value": "{Base.Neutral.neutral-12}",
        "type": "color",
        "description": "Use for gray backgrounds when there is no meaning tied to the color. Reserved for when you only want a hint of color."
      },
      "tertiary": {
        "value": "{Base.Neutral.neutral-11}",
        "type": "color",
        "description": "The default background for neutral elements, disabled states, separator"
      },
      "accent": {
        "value": "{Base.Orange.orange-06}",
        "type": "color",
        "description": "Use for the background of elements used to reinforce our brand, but with more emphasis. Elements in a selected state, such as checkboxes and radio buttons."
      },
      "accent-hover": {
        "value": "{Base.Orange.orange-05}",
        "type": "color",
        "description": "Use for background of elements in a hovered state."
      },
      "accent-press": {
        "value": "{Base.Orange.orange-04}",
        "type": "color",
        "description": "Use for background of elements in a pressed state."
      },
      "brand": {
        "value": "{Base.Blue.blue-06}",
        "type": "color",
        "description": "Use for background that reinforces our sport brand."
      },
      "brand-hover": {
        "value": "{Base.Blue.blue-05}",
        "type": "color",
        "description": "Use for brand background of elements in a pressed state."
      },
      "success": {
        "value": "{Base.Green.green-10}",
        "type": "color",
        "description": "Use for backgrounds communicating a favourable outcome, such as in success section messages."
      },
      "error": {
        "value": "{Base.Red.red-10}",
        "type": "color",
        "description": "Use for backgrounds communicating critical information, such in error section messages."
      },
      "warning": {
        "value": "{Base.Yellow.yellow-10}",
        "type": "color",
        "description": "Use for backgrounds communicating caution, such as in warning section messages."
      },
      "orange": {
        "value": "{Base.Orange.orange-10}",
        "type": "color",
        "description": "Use for orange backgrounds when there is no meaning tied to the color."
      },
      "white": {
        "value": "{Base.Neutral.neutral-00}",
        "type": "color",
        "description": "A vibrant background option for colored UI elements, such as announcement banners, white buttons."
      },
      "disabled": {
        "value": "{Base.Neutral.neutral-00}66",
        "type": "color",
        "description": "Use for backgrounds of elements in a disabled state."
      }
    },
    "border": {
      "minimal": {
        "value": "{Base.Neutral.neutral-11}",
        "type": "color",
        "description": "Use to visually group or separate UI elements, such as table divider ets."
      },
      "subtle": {
        "value": "{Base.Neutral.neutral-09}",
        "type": "color",
        "description": "Use to visually group or separate UI elements, such as cards, outlined buttons, text fields, checkboxes, and radio buttons."
      },
      "bold": {
        "value": "{Base.Neutral.neutral-08}",
        "type": "color",
        "description": "Use for borders of elements in a hovered state."
      },
      "contrast": {
        "value": "{Base.Neutral.neutral-07}",
        "type": "color",
        "description": "Use for borders of elements in a pressed state."
      },
      "accent": {
        "value": "{Base.Orange.orange-05}",
        "type": "color",
        "description": "Use for borders or visual indicators of elements that reinforce our brand."
      },
      "brand": {
        "value": "{Base.Blue.blue-05}",
        "type": "color",
        "description": "Use for borders or visual indicators of elements in a selected or opened state, such as in tabs or menu items."
      },
      "success": {
        "value": "{Base.Green.green-05}",
        "type": "color",
        "description": "Use for borders communicating a favourable outcome, such as the borders on validated text fields."
      },
      "error": {
        "value": "{Base.Red.red-05}",
        "type": "color",
        "description": "Use for borders communicating critical information, such as the borders on invalid text fields."
      },
      "warning": {
        "value": "{Base.Yellow.yellow-04}",
        "type": "color",
        "description": "Use for borders communicating caution."
      }
    },
    "text": {
      "primary": {
        "value": "{Base.Neutral.neutral-00}",
        "type": "color",
        "description": "Use for primary text, such as headers, navigation, input field placeholder, button outlined, active tabs."
      },
      "secondary": {
        "value": "{Base.Neutral.neutral-06}",
        "type": "color",
        "description": "Use for secondary text, such as body."
      },
      "tertiary": {
        "value": "{Base.Neutral.neutral-07}",
        "type": "color",
        "description": "Use for tertiary text, such as input field labels, inactive tabs."
      },
      "disabled": {
        "value": "{Base.Neutral.neutral-10}",
        "type": "color",
        "description": "Use for text in a disabled state."
      },
      "onСolor": {
        "value": "{Base.Neutral.neutral-00}",
        "type": "color",
        "description": "Use for text on colored backgrounds."
      },
      "onСolor-disabled": {
        "value": "{Base.Neutral.neutral-00}99",
        "type": "color",
        "description": "Use for text in a disabled state on colored backgrounds."
      },
      "onColor-inactive": {
        "value": "{Base.Neutral.neutral-00}cc",
        "type": "color",
        "description": "Use for menu in an inactive state on colored backgrounds."
      },
      "onWhite": {
        "value": "{Base.Neutral.neutral-16}",
        "type": "color",
        "description": "Use for text on white backgrounds, such as white buttons."
      },
      "accent": {
        "value": "{Base.Orange.orange-05}",
        "type": "color",
        "description": "Use for text in selected or opened states, such as dropdown buttons, links."
      },
      "brand": {
        "value": "{Base.Blue.blue-05}",
        "type": "color",
        "description": "Use for text that reinforces our sport brand."
      },
      "success": {
        "value": "{Base.Green.green-05}",
        "type": "color",
        "description": "Use for text to communicate a favourable outcome, such as input field success messaging."
      },
      "error": {
        "value": "{Base.Red.red-05}",
        "type": "color",
        "description": "Use for critical text, such as input field error messaging."
      },
      "warning": {
        "value": "{Base.Yellow.yellow-04}",
        "type": "color",
        "description": "Use for text to emphasize caution"
      }
    },
    "icon": {
      "primary": {
        "value": "{Base.Neutral.neutral-00}",
        "type": "color",
        "description": "Use for icons paired with text.primary"
      },
      "secondary": {
        "value": "{Base.Neutral.neutral-06}",
        "type": "color",
        "description": "Use for icons paired with \ntext.secondary"
      },
      "disabled": {
        "value": "{Base.Neutral.neutral-08}",
        "type": "color",
        "description": "Use for icons in a disabled state."
      },
      "onColor": {
        "value": "{Base.Neutral.neutral-00}",
        "type": "color",
        "description": "Use for icon on colored backgrounds."
      },
      "onColor-disabled": {
        "value": "{Base.Neutral.neutral-00}99",
        "type": "color",
        "description": "Use for icon in a disabled state on colored backgrounds."
      },
      "onWhite": {
        "value": "{Base.Neutral.neutral-16}",
        "type": "color",
        "description": "Use for icon on white backgrounds, such as white buttons."
      },
      "accent": {
        "value": "{Base.Orange.orange-05}",
        "type": "color",
        "description": "Use for icon in selected or opened states."
      },
      "brand": {
        "value": "{Base.Blue.blue-05}",
        "type": "color",
        "description": "Use for icon that reinforces our brand."
      },
      "green": {
        "value": "{Base.Green.green-05}",
        "type": "color",
        "description": "Use for green icons when there is no meaning tied to the color."
      },
      "red": {
        "value": "{Base.Red.red-05}",
        "type": "color",
        "description": "Use for red icons, when there is no meaning tied to the color."
      },
      "orange": {
        "value": "{Base.Yellow.yellow-05}",
        "type": "color",
        "description": "Use for red icons when there is no meaning tied to the color."
      }
    }
  },
  "textDecoration": {
    "underline": {
      "value": "underline",
      "type": "textDecoration"
    }
  },
  "Rounded-xs": {
    "value": "{Rounded-base}*1",
    "type": "borderRadius"
  },
  "Rounded-s": {
    "value": "{Rounded-base}+2",
    "type": "borderRadius"
  },
  "Rounded-m": {
    "value": "{Rounded-base}*2",
    "type": "borderRadius"
  },
  "Rounded-l": {
    "value": "{Rounded-base}*3",
    "type": "borderRadius"
  },
  "Rounded-xl": {
    "value": "{Rounded-base}*{Rounded-base}",
    "type": "borderRadius"
  },
  "Spacing-2": {
    "value": "{Spacing-base}*2",
    "type": "spacing"
  },
  "Spacing-3": {
    "value": "{Spacing-base}*3",
    "type": "spacing"
  },
  "Spacing-4": {
    "value": "{Spacing-base}*4",
    "type": "spacing"
  },
  "Spacing-5": {
    "value": "{Spacing-base}*5",
    "type": "spacing"
  },
  "Spacing-6": {
    "value": "{Spacing-base}*6",
    "type": "spacing"
  },
  "Spacing-7": {
    "value": "{Spacing-base}*7",
    "type": "spacing"
  },
  "Spacing-8": {
    "value": "{Spacing-base}*8",
    "type": "spacing"
  },
  "Rounded-full": {
    "value": "{Rounded-base}*250",
    "type": "borderRadius"
  },
  "Rounded-base": {
    "value": "4",
    "type": "borderRadius"
  },
  "Base": {
    "Orange": {
      "orange-01": {
        "value": "#ffede6",
        "type": "color",
        "description": "orange-01"
      },
      "orange-02": {
        "value": "#ffd3c2",
        "type": "color",
        "description": "orange-02"
      },
      "orange-03": {
        "value": "#ffb091",
        "type": "color",
        "description": "orange-03"
      },
      "orange-04": {
        "value": "#FF692E",
        "type": "color",
        "description": "orange-04"
      },
      "orange-05": {
        "value": "#FF5A1A",
        "type": "color",
        "description": "orange-05"
      },
      "orange-06": {
        "value": "#ff4800",
        "type": "color",
        "description": "orange-06"
      },
      "orange-07": {
        "value": "#E54100",
        "type": "color",
        "description": "orange-07"
      },
      "orange-08": {
        "value": "#D93D00",
        "type": "color",
        "description": "orange-08"
      },
      "orange-09": {
        "value": "#912900",
        "type": "color",
        "description": "orange-09"
      },
      "orange-10": {
        "value": "#732000",
        "type": "color",
        "description": "orange-10"
      }
    },
    "Blue": {
      "blue-01": {
        "value": "#e6ecff",
        "type": "color",
        "description": "blue-01"
      },
      "blue-02": {
        "value": "#b0c3ff",
        "type": "color",
        "description": "blue-02"
      },
      "blue-03": {
        "value": "#8aa5ff",
        "type": "color",
        "description": "blue-03"
      },
      "blue-04": {
        "value": "#547cff",
        "type": "color",
        "description": "blue-04"
      },
      "blue-05": {
        "value": "#3363ff",
        "type": "color",
        "description": "blue-05"
      },
      "blue-06": {
        "value": "#003cff",
        "type": "color",
        "description": "blue-06"
      },
      "blue-07": {
        "value": "#0037e8",
        "type": "color",
        "description": "blue-07"
      },
      "blue-08": {
        "value": "#002bb5",
        "type": "color",
        "description": "blue-08"
      },
      "blue-09": {
        "value": "#00218c",
        "type": "color",
        "description": "blue-09"
      },
      "blue-10": {
        "value": "#00196b",
        "type": "color",
        "description": "blue-10"
      }
    },
    "Green": {
      "green-01": {
        "value": "#dffcf0",
        "type": "color",
        "description": "DFFCF0"
      },
      "green-02": {
        "value": "#baf3db",
        "type": "color",
        "description": "BAF3DB"
      },
      "green-03": {
        "value": "#7ee2b8",
        "type": "color",
        "description": "7EE2B8"
      },
      "green-04": {
        "value": "#4bce97",
        "type": "color",
        "description": "4BCE97"
      },
      "green-05": {
        "value": "#2abb7f",
        "type": "color",
        "description": "2ABB7F"
      },
      "green-06": {
        "value": "#22a06b",
        "type": "color",
        "description": "219F6B"
      },
      "green-07": {
        "value": "#1f845a",
        "type": "color",
        "description": "1F8459"
      },
      "green-08": {
        "value": "#216e4e",
        "type": "color",
        "description": "206D4D"
      },
      "green-09": {
        "value": "#164b35",
        "type": "color",
        "description": "154B34"
      },
      "green-10": {
        "value": "#133527",
        "type": "color",
        "description": "133527"
      }
    },
    "Yellow": {
      "yellow-01": {
        "value": "#fff7d6",
        "type": "color",
        "description": "FFF6D6"
      },
      "yellow-02": {
        "value": "#f8e6a0",
        "type": "color",
        "description": "F8E6A0"
      },
      "yellow-03": {
        "value": "#f5cd47",
        "type": "color",
        "description": "F5CD47"
      },
      "yellow-04": {
        "value": "#e2b203",
        "type": "color",
        "description": "E2B203"
      },
      "yellow-05": {
        "value": "#cf9f02",
        "type": "color",
        "description": "CF9F02"
      },
      "yellow-06": {
        "value": "#b38600",
        "type": "color",
        "description": "B38600"
      },
      "yellow-07": {
        "value": "#946f00",
        "type": "color",
        "description": "936E00"
      },
      "yellow-08": {
        "value": "#7f5f01",
        "type": "color",
        "description": "7F5F01"
      },
      "yellow-09": {
        "value": "#533f04",
        "type": "color",
        "description": "533F04"
      },
      "yellow-10": {
        "value": "#3d2e00",
        "type": "color",
        "description": "3D2D00"
      }
    },
    "Red": {
      "red-01": {
        "value": "#ffedeb",
        "type": "color",
        "description": "FFEDEB"
      },
      "red-02": {
        "value": "#ffd2cc",
        "type": "color",
        "description": "FFD1CB"
      },
      "red-03": {
        "value": "#FF8E80",
        "type": "color",
        "description": "FF9C8F"
      },
      "red-04": {
        "value": "#F85F4A",
        "type": "color"
      },
      "red-05": {
        "value": "#EF4730",
        "type": "color"
      },
      "red-06": {
        "value": "#E52E17",
        "type": "color"
      },
      "red-07": {
        "value": "#CC2A14",
        "type": "color"
      },
      "red-08": {
        "value": "#ae2a19",
        "type": "color",
        "description": "AE2A19"
      },
      "red-09": {
        "value": "#601e16",
        "type": "color",
        "description": "601E16"
      },
      "red-10": {
        "value": "#391813",
        "type": "color",
        "description": "391813"
      }
    },
    "Purple": {
      "purple-01": {
        "value": "#f3f0ff",
        "type": "color",
        "description": "F3F0FF"
      },
      "purple-02": {
        "value": "#dfd8fd",
        "type": "color",
        "description": "DED8FC"
      },
      "purple-03": {
        "value": "#b8acf6",
        "type": "color",
        "description": "B8ACF6"
      },
      "purple-04": {
        "value": "#9f8fef",
        "type": "color",
        "description": "9F8FEF"
      },
      "purple-05": {
        "value": "#8f7ee7",
        "type": "color",
        "description": "8F7EE7"
      },
      "purple-06": {
        "value": "#8270db",
        "type": "color",
        "description": "8270DB"
      },
      "purple-07": {
        "value": "#6e5dc6",
        "type": "color",
        "description": "6E5CC5"
      },
      "purple-08": {
        "value": "#5e4db2",
        "type": "color",
        "description": "5E4DB2"
      },
      "purple-09": {
        "value": "#352c63",
        "type": "color",
        "description": "352C63"
      },
      "purple-10": {
        "value": "#231c3f",
        "type": "color",
        "description": "231C3F"
      }
    },
    "Magenta": {
      "magenta-01": {
        "value": "#ffecf8",
        "type": "color",
        "description": "FFECF8"
      },
      "magenta-02": {
        "value": "#fdd0ec",
        "type": "color",
        "description": "FDD0EB"
      },
      "magenta-03": {
        "value": "#f797d2",
        "type": "color",
        "description": "F797D2"
      },
      "magenta-04": {
        "value": "#e774bb",
        "type": "color",
        "description": "E774BB"
      },
      "magenta-05": {
        "value": "#da62ac",
        "type": "color",
        "description": "DA62AC"
      },
      "magenta-06": {
        "value": "#cd519d",
        "type": "color",
        "description": "CC519D"
      },
      "magenta-07": {
        "value": "#ae4787",
        "type": "color",
        "description": "AE4787"
      },
      "magenta-08": {
        "value": "#943d73",
        "type": "color",
        "description": "943C72"
      },
      "magenta-09": {
        "value": "#50253f",
        "type": "color",
        "description": "50253F"
      },
      "magenta-10": {
        "value": "#341829",
        "type": "color",
        "description": "341829"
      }
    },
    "Neutral": {
      "neutral-00": {
        "value": "#ffffff",
        "type": "color",
        "description": "FFFFFF"
      },
      "neutral-01": {
        "value": "#fafbfb",
        "type": "color",
        "description": "FAFBFB"
      },
      "neutral-02": {
        "value": "#f5f6f7",
        "type": "color",
        "description": "F4F5F7"
      },
      "neutral-03": {
        "value": "#eeeff0",
        "type": "color",
        "description": "EDEEF0"
      },
      "neutral-04": {
        "value": "#e4e6eb",
        "type": "color",
        "description": "E4E6EB"
      },
      "neutral-05": {
        "value": "#D8DCE5",
        "type": "color",
        "description": "D8DCE5"
      },
      "neutral-06": {
        "value": "#bcc1cc",
        "type": "color",
        "description": "BBC0CC"
      },
      "neutral-07": {
        "value": "#969fb3",
        "type": "color",
        "description": "969EB3"
      },
      "neutral-08": {
        "value": "#66718a",
        "type": "color",
        "description": "657089"
      },
      "neutral-09": {
        "value": "#505b75",
        "type": "color",
        "description": "4F5B75"
      },
      "neutral-10": {
        "value": "#414c66",
        "type": "color",
        "description": "414C65"
      },
      "neutral-11": {
        "value": "#313b52",
        "type": "color",
        "description": "313A52"
      },
      "neutral-12": {
        "value": "#1f283d",
        "type": "color",
        "description": "1E273D"
      },
      "neutral-13": {
        "value": "#141e33",
        "type": "color",
        "description": "141D33"
      },
      "neutral-14": {
        "value": "#081229",
        "type": "color",
        "description": "071129"
      },
      "neutral-15": {
        "value": "#060e1f",
        "type": "color",
        "description": "060D1F"
      },
      "neutral-16": {
        "value": "#000000",
        "type": "color",
        "description": "000000"
      }
    },
    "Gradient": {
      "gradient-00": {
        "value": "linear-gradient(180deg, #ffffff00 0%, #ffffff 100%)",
        "type": "color"
      },
      "gradient-01": {
        "value": "linear-gradient(180deg, #F5F6F700 0%, #F5F6F7 100%)",
        "type": "color"
      },
      "gradient-02": {
        "value": "linear-gradient(180deg, #1f283d00 0%, #1f283d 100%)",
        "type": "color"
      },
      "gradient-03": {
        "value": "linear-gradient(180deg, #141e3300 0%, #141e33 100%)",
        "type": "color"
      },
      "gradient-04": {
        "value": "linear-gradient(180deg, #060e1f00 0%, #060e1f 100%)",
        "type": "color"
      },
      "gradient-05": {
        "value": "linear-gradient(90deg, #003cbe 0%, #1979ff 100%)",
        "type": "color"
      }
    }
  }
}